{
  "name": "nsejt.mt",
  "description": "A theme specifically designed for nsejt.mt.",
  "author": "lifeboat.app",
  "version": "2.0.0",
  "update_url": "https://gitlab.com/lifeboat_themes/nsejt.mt/-/archive/main/cability-main.zip",
  "version_ping_url": "https://gitlab.com/lifeboat_themes/nsejt.mt/-/raw/main/VERSION",
  "custom_fields": {
    "HomeBanner": {
      "label": "Home: Banner Image",
      "type": "image"
    },
    "HomeBannerLink": {
      "label": "Home: Banner Link",
      "type": "text"
    },
    "HomeBannerAlt": {
      "label": "Home: Banner Alt Text",
      "type": "text"
    },
    "HomeMidBanner": {
      "label": "Home: Mid-Banner Image",
      "type": "image"
    },
    "NewArrivalsBanner": {
      "label": "Home: New Arrivals Banner",
      "type": "image"
    },
    "HomeMidBannerLink": {
      "label": "Home: Mid-Banner Link",
      "type": "text"
    },
    "HomeMidBannerAlt": {
      "label": "Home: Mid-Banner Alt Text",
      "type": "text"
    },
    "FooterText": {
      "label": "Footer Text",
      "type": "text"
    },
    "FooterCol1": {
      "label": "Footer Menu 1",
      "type": "list",
      "data_source": {
        "endpoint": "/api/menu/all",
        "model": "menu",
        "key": "ID",
        "label": "Title"
      }
    },
    "FooterCol2": {
      "label": "Footer Menu 2",
      "type": "list",
      "data_source": {
        "endpoint": "/api/menu/all",
        "model": "menu",
        "key": "ID",
        "label": "Title"
      }
    },
    "FooterCol3": {
      "label": "Footer Menu 3",
      "type": "list",
      "data_source": {
        "endpoint": "/api/menu/all",
        "model": "menu",
        "key": "ID",
        "label": "Title"
      }
    },
    "FooterCol4": {
      "label": "Footer Menu 4",
      "type": "list",
      "data_source": {
        "endpoint": "/api/menu/all",
        "model": "menu",
        "key": "ID",
        "label": "Title"
      }
    },
    "SubCategoryList": {
      "label": "Sub-Categories",
      "type": "list",
      "data_source": {
        "endpoint": "/api/menu/all",
        "model": "menu",
        "key": "ID",
        "label": "Title"
      },
      "attach_to": "Collection"
    },
    "ParentCategory": {
      "label": "Parent Category",
      "type": "list",
      "data_source": {
        "endpoint": "/api/collections/all",
        "model": "collection",
        "key": "ID",
        "label": "Title"
      },
      "attach_to": "Collection"
    }
  }
}
